{
    "ndk_module_path" :[
        "../cocos2d",
        "../cocos2d/cocos",
        "../cocos2d/external",
        "../cocos2d/cocos/scripting"
    ],
    "copy_resources": [
        {
            "from": "../Resources",
            "to": ""
        }
    ]
}
